[
    {
        "physical_properties": {},
        "background_color": "#ecf0f1",
        "has_floor": false,
        "launch_area": {
            "stroke_color": "#2ecc71",
            "line_width": 2,
            "center": "{240,270}",
            "size": "{50,50}",
            "rotation": 0,
            "type": "rect"
        },

        "goal": {
            "stroke_color": "#2c3e50",
            "center": "{240,100}",
            "size": "{60,60}",
            "rotation": 0,
            "type": "goal"
        },

        "obstacles": []
    },

    {
        "physical_properties": {},
        "background_color": "#ecf0f1",
        "has_floor": false,
        "launch_area": {
            "stroke_color": "#2ecc71",
            "line_width": 2,
            "center": "{240,100}",
            "size": "{80,80}",
            "rotation": 45,
            "type": "rect"
        },

        "goal": {
            "stroke_color": "#2c3e50",
            "center": "{240,270}",
            "size": "{50,50}",
            "rotation": 180,
            "type": "goal"
        },

        "obstacles": []
    },

    {
        "physical_properties": {},
        "background_color": "#ecf0f1",
        "has_floor": false,
        "launch_area": {
            "stroke_color": "#2ecc71",
            "line_width": 2,
            "center": "{100,150}",
            "size": "{80,80}",
            "rotation": 0,
            "type": "rect"
        },

        "goal": {
            "stroke_color": "#2c3e50",
            "center": "{300,150}",
            "size": "{60,60}",
            "rotation": 0,
            "type": "goal"
        },

        "obstacles": [
            {
                "stroke_color": "#2c3e50",
                "fill_color": "#2c3e50",
                "line_width": 2,
                "center": "{200,120}",
                "size": "{5,240}",
                "rotation": 0,
                "type": "rect"
            }
        ]
    },

    {
        "physical_properties": {},
        "background_color": "#ecf0f1",
        "has_floor": false,
        "launch_area": {
            "stroke_color": "#2ecc71",
            "line_width": 2,
            "center": "{90,125}",
            "size": "{75,75}",
            "rotation": 0,
            "type": "ellipse"
        },

        "goal": {
            "stroke_color": "#2c3e50",
            "center": "{390,50}",
            "size": "{50,50}",
            "rotation": 0,
            "type": "goal"
        },

        "obstacles": [
            {
                "stroke_color": "#2c3e50",
                "fill_color": "#2c3e50",
                "line_width": 2,
                "center": "{240,125}",
                "size": "{175,5}",
                "rotation": 0,
                "type": "rect"
            }

        ]
    },

    {
        "physical_properties": {},
        "background_color": "#ecf0f1",
        "has_floor": true,
        "launch_area": {
            "stroke_color": "#f1c40f",
            "line_width": 2,
            "center": "{60,60}",
            "size": "{90,90}",
            "rotation": 0,
            "type": "rect"
        },

        "goal": {
            "stroke_color": "#2c3e50",
            "center": "{300,250}",
            "size": "{50,50}",
            "rotation": 30,
            "type": "goal"
        },

        "obstacles": []
    },

    {
        "physical_properties": {},
        "background_color": "#ecf0f1",
        "has_floor": true,
        "launch_area": {
            "stroke_color": "#f1c40f",
            "line_width": 2,
            "center": "{140,140}",
            "size": "{100,100}",
            "rotation": 0,
            "type": "rect"
        },

        "goal": {
            "stroke_color": "#2c3e50",
            "center": "{320,50}",
            "size": "{50,50}",
            "rotation": 0,
            "type": "goal"
        },

        "obstacles": [
            {
                "stroke_color": "#2c3e50",
                "fill_color": "#2c3e50",
                "line_width": 2,
                "center": "{200,210}",
                "size": "{5,240}",
                "rotation": 0,
                "type": "rect"
            },
            {
                "stroke_color": "#2c3e50",
                "fill_color": "#2c3e50",
                "line_width": 2,
                "center": "{250,35}",
                "size": "{5,60}",
                "rotation": 0,
                "type": "rect"
            }
        ]
    },

    {
        "physical_properties": {},
        "background_color": "#ecf0f1",
        "has_floor": false,
        "launch_area": {
            "stroke_color": "#f1c40f",
            "line_width": 2,
            "center": "{100,100}",
            "size": "{80,120}",
            "rotation": 0,
            "type": "ellipse"
        },

        "goal": {
            "stroke_color": "#2c3e50",
            "center": "{320,160}",
            "size": "{45,45}",
            "rotation": -30,
            "type": "goal"
        },

        "obstacles": [
            {
                "stroke_color": "#2c3e50",
                "fill_color": "#2c3e50",
                "line_width": 2,
                "center": "{400,240}",
                "size": "{5,80}",
                "rotation": 0,
                "type": "rect"
            }

        ]
    },

    {
        "physical_properties": {},
        "background_color": "#ecf0f1",
        "has_floor": false,
        "launch_area": {
            "stroke_color": "#f1c40f",
            "line_width": 2,
            "center": "{100,200}",
            "size": "{50,50}",
            "rotation": 0,
            "type": "rect"
        },

        "goal": {
            "stroke_color": "#2c3e50",
            "center": "{350,100}",
            "size": "{40,40}",
            "rotation": 0,
            "type": "goal"
        },

        "obstacles": []
    },

    {
        "physical_properties": {},
        "background_color": "#ecf0f1",
        "has_floor": true,
        "launch_area": {
            "stroke_color": "#f1c40f",
            "line_width": 2,
            "center": "{100,200}",
            "size": "{50,50}",
            "rotation": 0,
            "type": "rect"
        },

        "goal": {
            "stroke_color": "#2c3e50",
            "center": "{350,100}",
            "size": "{40,40}",
            "rotation": 0,
            "type": "goal"
        },

        "obstacles": [
            {
                "stroke_color": "#2c3e50",
                "fill_color": "#2c3e50",
                "line_width": 2,
                "center": "{250,240}",
                "size": "{5,180}",
                "rotation": 0,
                "type": "rect"
            }
        ]
    },

    {
        "physical_properties": {},
        "background_color": "#ecf0f1",
        "has_floor": false,
        "launch_area": {
            "stroke_color": "#e74c3c",
            "line_width": 2,
            "center": "{240,270}",
            "size": "{75,75}",
            "rotation": 0,
            "type": "ellipse"
        },

        "goal": {
            "stroke_color": "#2c3e50",
            "center": "{120,100}",
            "size": "{50,50}",
            "rotation": 330,
            "type": "goal"
        },

        "obstacles": [
            {
                "stroke_color": "#2c3e50",
                "fill_color": "#2c3e50",
                "line_width": 2,
                "center": "{360,100}",
                "size": "{150,5}",
                "rotation": 30,
                "type": "rect"
            }

        ]
    },

    {
        "physical_properties": {},
        "background_color": "#ecf0f1",
        "has_floor": false,
        "launch_area": {
            "stroke_color": "#e74c3c",
            "line_width": 2,
            "center": "{60,240}",
            "size": "{100,80}",
            "rotation": 0,
            "type": "rect"
        },

        "goal": {
            "stroke_color": "#2c3e50",
            "center": "{430,40}",
            "size": "{50,50}",
            "rotation": 0,
            "type": "goal"
        },

        "obstacles": [
            {
                "stroke_color": "#2c3e50",
                "fill_color": "#2c3e50",
                "line_width": 2,
                "center": "{260,75}",
                "size": "{280,5}",
                "rotation": 0,
                "type": "rect"
            },
            {
                "stroke_color": "#2c3e50",
                "fill_color": "#2c3e50",
                "line_width": 2,
                "center": "{180,160}",
                "size": "{100,5}",
                "rotation": 0,
                "type": "rect"
            },
            {
                "stroke_color": "#2c3e50",
                "fill_color": "#2c3e50",
                "line_width": 2,
                "center": "{390,160}",
                "size": "{240,5}",
                "rotation": 0,
                "type": "rect"
            }
        ]
    },

    {
        "physical_properties": {},
        "background_color": "#ecf0f1",
        "has_floor": true,
        "launch_area": {
            "stroke_color": "#e74c3c",
            "line_width": 2,
            "center": "{100,100}",
            "size": "{45,45}",
            "rotation": 0,
            "type": "ellipse"
        },

        "goal": {
            "stroke_color": "#2c3e50",
            "center": "{300,100}",
            "size": "{45,45}",
            "rotation": 30,
            "type": "goal"
        },

        "obstacles": []
    }
]
